<?xml version="1.0" encoding="UTF-8" standalone="no"?>
<!-- Created with Inkscape (http://www.inkscape.org/) -->

<svg
   xmlns:dc="http://purl.org/dc/elements/1.1/"
   xmlns:cc="http://creativecommons.org/ns#"
   xmlns:rdf="http://www.w3.org/1999/02/22-rdf-syntax-ns#"
   xmlns:svg="http://www.w3.org/2000/svg"
   xmlns="http://www.w3.org/2000/svg"
   xmlns:sodipodi="http://sodipodi.sourceforge.net/DTD/sodipodi-0.dtd"
   xmlns:inkscape="http://www.inkscape.org/namespaces/inkscape"
   width="56.44445mm"
   height="58.702229mm"
   viewBox="0 0 200.00002 208.00002"
   id="svg2"
   version="1.1"
   inkscape:version="0.91 r13725"
   sodipodi:docname="saiku-media-kit.svg">
  <defs
     id="defs4" />
  <sodipodi:namedview
     id="base"
     pagecolor="#ffffff"
     bordercolor="#666666"
     borderopacity="1.0"
     inkscape:pageopacity="0.0"
     inkscape:pageshadow="2"
     inkscape:zoom="0.49497475"
     inkscape:cx="-204.58908"
     inkscape:cy="71.548707"
     inkscape:document-units="px"
     inkscape:current-layer="layer1"
     showgrid="false"
     fit-margin-top="0"
     fit-margin-left="0"
     fit-margin-right="0"
     fit-margin-bottom="0"
     inkscape:window-width="1366"
     inkscape:window-height="697"
     inkscape:window-x="303"
     inkscape:window-y="1104"
     inkscape:window-maximized="1" />
  <metadata
     id="metadata7">
    <rdf:RDF>
      <cc:Work
         rdf:about="">
        <dc:format>image/svg+xml</dc:format>
        <dc:type
           rdf:resource="http://purl.org/dc/dcmitype/StillImage" />
        <dc:title></dc:title>
      </cc:Work>
    </rdf:RDF>
  </metadata>
  <g
     inkscape:label="Layer 1"
     inkscape:groupmode="layer"
     id="layer1"
     transform="translate(-179.17667,-321.00281)">
    <rect
       style="opacity:1;fill:#242227;fill-opacity:1;stroke:none;stroke-width:1;stroke-miterlimit:4;stroke-dasharray:none;stroke-opacity:1"
       id="rect4282"
       width="200"
       height="208"
       x="179.17667"
       y="321.00281"
       inkscape:export-xdpi="90.000008"
       inkscape:export-ydpi="90.000008" />
    <g
       id="g4260">
      <rect
         inkscape:export-ydpi="90"
         inkscape:export-xdpi="90"
         y="189.00464"
         x="-723.87836"
         height="200"
         width="640"
         id="rect4215"
         style="opacity:1;fill:#242227;fill-opacity:1;stroke:none;stroke-width:1;stroke-miterlimit:4;stroke-dasharray:none;stroke-opacity:1" />
      <g
         inkscape:export-ydpi="90"
         inkscape:export-xdpi="90"
         transform="matrix(1.7079944,0,0,1.7079944,-578.87724,259.43561)"
         id="surface1">
        <path
           inkscape:connector-curvature="0"
           style="fill:#c51e1e;fill-opacity:1;fill-rule:nonzero;stroke:none"
           d="m 170.52344,16.402344 c 0.49218,-9.535156 8.58984,-16.855469 18.07812,-16.355469 9.49219,0.5 16.78516,8.632813 16.29297,18.167969 -0.26562,5.109375 -2.71094,9.582031 -6.38672,12.558594 l 0,-16.007813 c 0,-2.542969 -2.03515,-6.53125 -4.96484,-7.21875 l 0,26.03125 c -1.0586,0.386719 -2.16406,0.664063 -3.30469,0.835937 l 0,-12.839843 c 0,-2.542969 -2.03125,-6.53125 -4.96484,-7.21875 l 0,20.066406 c -1.14063,-0.160156 -2.2461,-0.4375 -3.30078,-0.8125 l 0,-6.160156 c 0,-2.542969 -2.03516,-6.53125 -4.96485,-7.21875 l 0,10.617187 c -4.20312,-3.363281 -6.78515,-8.644531 -6.48437,-14.445312"
           id="path4192" />
        <path
           inkscape:connector-curvature="0"
           style="fill:#c51e1e;fill-opacity:1;fill-rule:nonzero;stroke:none"
           d="m 149.26172,29.734375 c 3.3164,-3.335937 4.96875,-7.320313 4.96875,-12 l 0,-16.867187 -7.1875,0 0,16.867187 c 0,2.667969 -0.94531,4.96875 -2.8086,6.839844 -1.86328,1.78125 -4.10546,2.6875 -6.67578,2.6875 -2.64843,0 -4.9375,-0.90625 -6.80468,-2.691407 -1.77735,-1.878906 -2.67969,-4.179687 -2.67969,-6.835937 l 0,-16.867187 -7.30859,0 0,16.867187 c 0,4.679687 1.60937,8.664063 4.83984,11.992187 3.3164,3.253907 7.28906,4.875 11.95312,4.875 4.57813,0 8.46485,-1.617187 11.70313,-4.867187 z M 93.761719,0.855469 l -7.304688,0 0,33.734375 7.304688,0 0,-10.273438 18.421871,9.863282 c 0.88672,0.480468 1.78516,0.546874 2.74219,0.203124 0.95703,-0.339843 1.63281,-0.988281 2.05078,-1.964843 0.41016,-0.890625 0.45313,-1.816407 0.10157,-2.800781 -0.34766,-0.980469 -0.97657,-1.664063 -1.85938,-2.074219 L 97.027344,17.722656 115.21875,7.902344 c 0.89844,-0.414063 1.51953,-1.066406 1.85938,-1.949219 0.34765,-0.972656 0.3164,-1.9375 -0.10157,-2.925781 -0.41015,-0.882813 -1.07812,-1.492188 -2.05078,-1.839844 -0.97265,-0.351562 -1.8789,-0.316406 -2.76172,0.089844 L 93.761719,11.132812 Z M 81.59375,0.84375 l -7.308594,0 0,33.757812 7.308594,0 z M 3.027344,18.449219 c 2,1.929687 4.410156,2.890625 7.269531,2.890625 l 13.078125,0 c 0.75,0 1.375,0.378906 1.875,0.957031 0.605469,0.527344 0.949219,1.203125 0.949219,2.003906 0,0.808594 -0.355469,1.496094 -0.976563,2.023438 -0.515625,0.511719 -1.136718,0.8125 -1.847656,0.8125 l -19.574219,0 c -5.136719,0 -5,7.464843 0,7.464843 l 19.574219,0 c 2.765625,0 5.132812,-0.996093 7.136719,-3.011718 2.003906,-2.007813 2.996093,-4.425782 2.996093,-7.289063 0,-2.777343 -0.996093,-5.15625 -3,-7.171875 C 28.5,15.035156 26.132812,14 23.375,14 l -13.078125,0 c -1.617187,0 -2.945313,-1.167969 -2.945313,-2.835938 0,-1.886718 1.066407,-2.957031 2.945313,-2.957031 l 18.429687,0 c 4.484376,0 4.335938,-7.339843 0,-7.339843 l -18.429687,0 c -2.839844,0 -5.25,1.039062 -7.253906,3.125 -2.003907,2.015624 -3.0000002,4.398437 -3.0000002,7.171874 0,2.863282 0.9921872,5.273438 2.9843752,7.285157 z M 59.386719,14.125 l -12.53125,0 c -2.859375,0 -5.265625,0.960938 -7.261719,2.882812 -2,2.011719 -2.996094,4.425782 -2.996094,7.292969 0,2.773438 0.996094,5.15625 3,7.171875 2.003906,2.089844 4.414063,3.128906 7.257813,3.128906 l 22.664062,0 0,-23.4375 C 69.519531,8.3125 68.535156,5.894531 66.523438,3.875 64.519531,1.859375 62.152344,0.867188 59.386719,0.867188 l -16.367188,0 c -4.996093,0 -5.132812,7.464843 0,7.464843 l 16.367188,0 c 0.710937,0 1.332031,0.300781 1.847656,0.808594 0.621094,0.53125 0.976563,1.214844 0.976563,2.027344 0,0.796875 -0.34375,1.472656 -0.953126,2 C 60.761719,13.75 60.136719,14.125 59.386719,14.125 Z m -12.53125,7.339844 15.394531,0 0,5.796875 -15.394531,0 c -1.882813,0 -2.949219,-1.074219 -2.949219,-2.960938 0,-1.664062 1.332031,-2.835937 2.949219,-2.835937"
           id="path4194" />
      </g>
    </g>
    <g
       transform="matrix(1.041675,0,0,-1.041675,215.5115,488.56204)"
       id="g3012"
       inkscape:export-xdpi="90.000008"
       inkscape:export-ydpi="90.000008">
      <path
         d="m 1.2035,63.875 c 1.7223,33.259 29.947,58.802 63.035,57.057 33.092,-1.7455 58.521,-30.118 56.8,-63.377 -0.92319,-17.822 -9.4533,-33.426 -22.266,-43.806 l 0,55.833 c 0,8.8764 -7.0877,22.782 -17.309,25.183 l 0,-90.803 C 77.7757,2.6225 73.9211,1.6437 69.9505,1.0554 l 0,44.784 c 0,8.8714 -7.0877,22.778 -17.309,25.178 l 0,-70.001 c -3.9826,0.56963 -7.8332,1.5269 -11.513,2.8369 l 0,21.492 c 0,8.8754 -7.0927,22.782 -17.309,25.182 l 0,-37.03 c -14.668,11.72 -23.668,30.145 -22.622,50.378"
         id="path3016"
         inkscape:connector-curvature="0"
         style="fill:#c52120" />
    </g>
  </g>
</svg>
